┌─────────┬─────────────────────┬─────────────────────┬──────────────┬──────────────┬──────────────┬──────────────┐
│  type   │   pickup_datetime   │  dropOff_datetime   │ duration_min │ duration_sec │ PUlocationID │ DOlocationID │
│ varchar │      timestamp      │      timestamp      │    int64     │    int64     │    double    │    double    │
├─────────┼─────────────────────┼─────────────────────┼──────────────┼──────────────┼──────────────┼──────────────┤
│ fhv     │ 2021-05-06 21:55:00 │ 2021-05-06 22:42:00 │           47 │         2820 │              │              │
│ fhv     │ 2021-05-06 21:36:00 │ 2021-05-06 21:51:00 │           15 │          900 │              │              │
│ fhv     │ 2021-05-06 21:58:33 │ 2021-05-06 22:11:44 │           13 │          791 │              │        259.0 │
│ fhv     │ 2021-05-06 21:04:27 │ 2021-05-06 21:25:25 │           21 │         1258 │              │        250.0 │
│ fhv     │ 2021-05-06 21:01:58 │ 2021-05-06 21:14:28 │           13 │          750 │              │        212.0 │
│ fhv     │ 2021-05-06 21:18:20 │ 2021-05-06 21:24:17 │            6 │          357 │              │        212.0 │
│ fhv     │ 2021-05-06 21:32:44 │ 2021-05-06 22:02:53 │           30 │         1809 │              │        120.0 │
│ fhv     │ 2021-05-06 21:51:53 │ 2021-05-06 22:01:55 │           10 │          602 │              │        241.0 │
│ fhv     │ 2021-05-06 21:17:34 │ 2021-05-06 21:24:18 │            7 │          404 │              │        126.0 │
│ fhv     │ 2021-05-06 21:44:29 │ 2021-05-06 22:00:50 │           16 │          981 │              │         81.0 │
│ fhv     │ 2021-05-06 21:21:36 │ 2021-05-06 21:29:20 │            8 │          464 │              │        169.0 │
│ fhv     │ 2021-05-06 21:33:58 │ 2021-05-06 21:45:52 │           12 │          714 │              │        244.0 │
│ fhv     │ 2021-05-06 21:51:59 │ 2021-05-06 21:53:06 │            2 │           67 │              │        126.0 │
│ fhv     │ 2021-05-06 21:35:16 │ 2021-05-06 21:49:06 │           14 │          830 │              │         76.0 │
│ fhv     │ 2021-05-06 21:57:18 │ 2021-05-06 22:15:27 │           18 │         1089 │              │         72.0 │
│ fhv     │ 2021-05-06 21:58:00 │ 2021-05-06 22:13:11 │           15 │          911 │              │         60.0 │
│ fhv     │ 2021-05-06 21:48:35 │ 2021-05-06 22:03:04 │           15 │          869 │              │        168.0 │
│ fhv     │ 2021-05-06 21:04:38 │ 2021-05-06 21:20:24 │           16 │          946 │              │        213.0 │
│ fhv     │ 2021-05-06 21:47:59 │ 2021-05-06 21:58:30 │           11 │          631 │              │        235.0 │
│ fhv     │ 2021-05-06 21:02:11 │ 2021-05-06 21:07:25 │            5 │          314 │              │         42.0 │
│  ·      │          ·          │          ·          │            · │           ·  │      ·       │           ·  │
│  ·      │          ·          │          ·          │            · │           ·  │      ·       │           ·  │
│  ·      │          ·          │          ·          │            · │           ·  │      ·       │           ·  │
│ fhv     │ 2020-03-04 10:16:12 │ 2020-03-04 10:19:43 │            3 │          211 │              │        133.0 │
│ fhv     │ 2020-03-04 10:23:31 │ 2020-03-04 10:36:44 │           13 │          793 │              │        165.0 │
│ fhv     │ 2020-03-04 10:16:30 │ 2020-03-04 10:20:12 │            4 │          222 │              │        228.0 │
│ fhv     │ 2020-03-04 10:21:27 │ 2020-03-04 10:27:30 │            6 │          363 │              │        136.0 │
│ fhv     │ 2020-03-04 10:13:46 │ 2020-03-04 10:31:28 │           18 │         1062 │              │        136.0 │
│ fhv     │ 2020-03-04 10:46:36 │ 2020-03-04 11:02:37 │           16 │          961 │              │        241.0 │
│ fhv     │ 2020-03-04 10:14:23 │ 2020-03-04 10:30:59 │           16 │          996 │              │        265.0 │
│ fhv     │ 2020-03-04 10:17:06 │ 2020-03-04 10:29:43 │           12 │          757 │              │        174.0 │
│ fhv     │ 2020-03-04 10:51:50 │ 2020-03-04 11:36:34 │           45 │         2684 │              │        119.0 │
│ fhv     │ 2020-03-04 10:09:28 │ 2020-03-04 10:12:00 │            3 │          152 │              │        241.0 │
│ fhv     │ 2020-03-04 10:17:45 │ 2020-03-04 10:28:58 │           11 │          673 │              │         18.0 │
│ fhv     │ 2020-03-04 10:50:31 │ 2020-03-04 10:58:56 │            8 │          505 │              │        127.0 │
│ fhv     │ 2020-09-25 09:15:00 │ 2020-09-25 10:15:00 │           60 │         3600 │              │         37.0 │
│ fhv     │ 2020-07-26 10:16:36 │ 2020-07-26 10:21:40 │            5 │          304 │              │        171.0 │
│ fhv     │ 2020-07-26 13:04:24 │ 2020-07-26 13:16:56 │           12 │          752 │              │        232.0 │
│ fhv     │ 2020-07-27 07:54:06 │ 2020-07-27 08:20:53 │           26 │         1607 │              │         93.0 │
│ fhv     │ 2020-07-27 08:46:08 │ 2020-07-27 09:04:56 │           18 │         1128 │              │         28.0 │
│ fhv     │ 2020-07-27 10:51:16 │ 2020-07-27 11:03:02 │           12 │          706 │              │         73.0 │
│ fhv     │ 2020-07-27 11:06:51 │ 2020-07-27 11:08:37 │            2 │          106 │              │         73.0 │
│ fhv     │ 2020-07-27 11:29:16 │ 2020-07-27 11:59:09 │           30 │         1793 │              │         93.0 │
├─────────┴─────────────────────┴─────────────────────┴──────────────┴──────────────┴──────────────┴──────────────┤
│ 15679790 rows (40 shown)                                                                              7 columns │
└─────────────────────────────────────────────────────────────────────────────────────────────────────────────────┘
