┌──────────────────────┬──────────────────────┬─────────────┬───┬──────────────────────┬──────────────────────┐
│ tpep_pickup_datetime │ tpep_dropoff_datet…  │ fare_amount │ … │ zone_average_fare_…  │ overall_average_fa…  │
│      timestamp       │      timestamp       │   double    │   │        double        │        double        │
├──────────────────────┼──────────────────────┼─────────────┼───┼──────────────────────┼──────────────────────┤
│ 2020-11-23 12:50:00  │ 2020-11-23 12:50:19  │        75.0 │ … │      78.132207057906 │      77.897023417844 │
│ 2021-09-04 09:45:39  │ 2021-09-04 09:45:43  │        96.0 │ … │      78.132207057906 │      77.897023417844 │
│ 2021-09-04 09:45:16  │ 2021-09-04 09:45:30  │        95.0 │ … │      78.132207057906 │      77.897023417844 │
│ 2021-09-04 07:23:29  │ 2021-09-04 07:23:39  │        20.0 │ … │      78.132207057906 │      77.897023417844 │
│ 2021-09-04 06:50:46  │ 2021-09-04 06:51:47  │        70.0 │ … │      78.132207057906 │      77.897023417844 │
│ 2021-09-04 05:50:37  │ 2021-09-04 05:51:21  │       67.05 │ … │      78.132207057906 │      77.897023417844 │
│ 2020-11-24 09:34:59  │ 2020-11-24 09:35:24  │        92.3 │ … │      78.132207057906 │      77.897023417844 │
│ 2020-11-24 09:15:29  │ 2020-11-24 09:15:32  │        86.0 │ … │      78.132207057906 │      77.897023417844 │
│ 2020-11-24 03:03:38  │ 2020-11-24 03:04:03  │         2.5 │ … │      78.132207057906 │      77.897023417844 │
│ 2020-11-23 13:36:41  │ 2020-11-23 13:37:16  │        20.0 │ … │      78.132207057906 │      77.897023417844 │
│ 2020-11-23 13:34:56  │ 2020-11-23 13:34:58  │        20.0 │ … │      78.132207057906 │      77.897023417844 │
│ 2021-09-04 11:31:12  │ 2021-09-04 11:31:22  │        95.0 │ … │      78.132207057906 │      77.897023417844 │
│ 2020-11-06 08:59:26  │ 2020-11-06 08:59:36  │         2.5 │ … │      78.132207057906 │      77.897023417844 │
│ 2020-11-06 08:57:28  │ 2020-11-06 08:57:55  │         2.5 │ … │      78.132207057906 │      77.897023417844 │
│ 2020-11-06 08:55:01  │ 2020-11-06 08:55:13  │         2.5 │ … │      78.132207057906 │      77.897023417844 │
│ 2020-11-05 18:20:36  │ 2020-11-05 18:20:45  │        90.0 │ … │      78.132207057906 │      77.897023417844 │
│ 2020-11-05 13:16:48  │ 2020-11-05 13:16:56  │        90.0 │ … │      78.132207057906 │      77.897023417844 │
│ 2021-05-25 18:35:41  │ 2021-05-25 18:37:35  │        80.0 │ … │      78.132207057906 │      77.897023417844 │
│ 2021-05-25 14:31:33  │ 2021-05-25 14:31:44  │       130.0 │ … │      78.132207057906 │      77.897023417844 │
│ 2021-05-13 17:48:31  │ 2021-05-13 17:48:35  │        80.0 │ … │      78.132207057906 │      77.897023417844 │
│          ·           │          ·           │          ·  │ · │             ·        │             ·        │
│          ·           │          ·           │          ·  │ · │             ·        │             ·        │
│          ·           │          ·           │          ·  │ · │             ·        │             ·        │
│ 2020-07-29 16:42:59  │ 2020-07-29 16:57:37  │        18.0 │ … │    46.15342105263158 │      77.897023417844 │
│ 2020-08-23 12:05:00  │ 2020-08-23 12:20:00  │       41.02 │ … │    46.15342105263158 │      77.897023417844 │
│ 2020-02-02 16:28:52  │ 2020-02-02 17:15:00  │        52.0 │ … │    46.15342105263158 │      77.897023417844 │
│ 2021-03-17 12:24:24  │ 2021-03-17 12:38:01  │        10.5 │ … │    46.15342105263158 │      77.897023417844 │
│ 2021-03-17 16:25:32  │ 2021-03-17 16:41:32  │        19.5 │ … │    46.15342105263158 │      77.897023417844 │
│ 2021-04-02 16:42:00  │ 2021-04-02 17:44:00  │       86.33 │ … │    46.15342105263158 │      77.897023417844 │
│ 2020-07-16 17:56:00  │ 2020-07-16 19:01:00  │       36.12 │ … │    46.15342105263158 │      77.897023417844 │
│ 2020-07-29 08:42:00  │ 2020-07-29 09:25:00  │       26.47 │ … │    46.15342105263158 │      77.897023417844 │
│ 2020-08-09 04:21:43  │ 2020-08-09 04:49:14  │        53.8 │ … │    46.15342105263158 │      77.897023417844 │
│ 2020-02-18 22:11:35  │ 2020-02-18 22:19:40  │        12.5 │ … │    46.15342105263158 │      77.897023417844 │
│ 2021-07-05 13:55:44  │ 2021-07-05 14:35:04  │        52.0 │ … │    46.15342105263158 │      77.897023417844 │
│ 2020-02-28 08:16:40  │ 2020-02-28 09:38:11  │        52.0 │ … │    46.15342105263158 │      77.897023417844 │
│ 2020-01-08 23:10:24  │ 2020-01-08 23:27:31  │        29.0 │ … │    46.15342105263158 │      77.897023417844 │
│ 2020-08-11 03:16:37  │ 2020-08-11 03:53:47  │        59.0 │ … │    46.15342105263158 │      77.897023417844 │
│ 2020-03-09 10:51:43  │ 2020-03-09 10:57:40  │         9.0 │ … │    46.15342105263158 │      77.897023417844 │
│ 2020-02-21 15:26:27  │ 2020-02-21 16:32:58  │        52.0 │ … │    46.15342105263158 │      77.897023417844 │
│ 2020-02-27 07:35:36  │ 2020-02-27 08:07:21  │        24.5 │ … │    46.15342105263158 │      77.897023417844 │
│ 2021-04-25 11:16:00  │ 2021-04-25 11:32:00  │       42.96 │ … │    46.15342105263158 │      77.897023417844 │
│ 2020-09-10 08:31:00  │ 2020-09-10 08:53:00  │       48.75 │ … │    46.15342105263158 │      77.897023417844 │
│ 2020-01-20 19:34:22  │ 2020-01-20 19:41:17  │         9.5 │ … │    46.15342105263158 │      77.897023417844 │
├──────────────────────┴──────────────────────┴─────────────┴───┴──────────────────────┴──────────────────────┤
│ 5167 rows (40 shown)                                                                    6 columns (5 shown) │
└─────────────────────────────────────────────────────────────────────────────────────────────────────────────┘
